කතා කළෙමි
ලීවෙමි
පැදවූවෙමි
ආදරය කළෙමි
දුන්නෙමි
සිනාසුනෙමි
ගත්තෙමි
කතා කළේය
ලීවේය
පැදවූයේය
දුන්නේය
සිනාසුනේය
ගත්තේය
කළෙමු
ලීවෙමු
පැදවූවෙමු
කරන්නෙමු
ලියන්නෙමු
පදවන්නෙමු
දෙන්නෙමු
දුන්නෙමු
සිනාසුනෙමු
ගත්තෙමු
කරන්නෙමි
ලියන්නෙමි
පදවන්නෙමි
දෙන්නෙමි
ගනිමි
කරයි
කරමි
සිනාසෙන්නෙමි
ගන්නෙමි
කරන්නේය
ලියන්නේය
පදවන්නේය
දෙන්නේය
සිනාසෙන්නේය
ගන්නේය
ලියයි
පදවයි
දෙයි
කරයි
සිනාසෙයි
ගනියි